{
  "status": "OK",
  "responses": {
    "listApps": {
      "info": {
        "status": "OK",
        "time": {
          "seconds": 0.14275598526000977,
          "human": "143 milliseconds"
        }
      },
      "datasets": {
        "all": {
          "info": {
            "status": "OK",
            "time": {
              "seconds": 0.14089322090148926,
              "human": "141 milliseconds"
            }
          },
          "data": {
            "total": 689025,
            "offset": 0,
            "limit": 25,
            "next": 110,
            "hidden": 0,
            "list": [
              {
                "id": 52632919,
                "name": "Kheti Buddy - Farm (खेतीबडी)",
                "package": "com.aaria.farmer",
                "store_id": 2662743,
                "store_name": "split-store",
                "vername": "1.0.14",
                "vercode": 38,
                "md5sum": "a94eef79cec66e1000f5d867b6b4c38f",
                "apk_tags": [],
                "size": 14267154,
                "downloads": 125,
                "pdownloads": 125,
                "added": "2020-06-04 19:00:18",
                "modified": "2020-07-29 07:50:54",
                "updated": "2023-04-15 12:32:47",
                "rating": 0,
                "icon": "https://pool.img.aptoide.com/split-store/abc6abd72aa06ced9a892d995282069a_icon.png",
                "graphic": "https://pool.img.aptoide.com/split-store/74dd8285bff14789c2caad847c451eec.png",
                "uptype": "webservice"
              },
              {
                "id": 51375530,
                "name": "Maru",
                "package": "my.geulga",
                "store_id": 2662743,
                "store_name": "split-store",
                "vername": "3.9.0",
                "vercode": 310,
                "md5sum": "b2daee005129793f4a46411a3bfee7f8",
                "apk_tags": [],
                "size": 11898957,
                "downloads": 388,
                "pdownloads": 388,
                "added": "2015-07-30 04:57:44",
                "modified": "2020-04-20 17:20:03",
                "updated": "2023-04-15 12:32:18",
                "rating": 0,
                "icon": "https://pool.img.aptoide.com/split-store/ac783c22d947d89af75c03bd6186cdbd_icon.png",
                "graphic": "https://pool.img.aptoide.com/split-store/fe1949b85eafac302c25d53b61f747a4.png",
                "uptype": "webservice"
              },
              {
                "id": 51801095,
                "name": "Shopping - Grocery Organizer",
                "package": "com.colpit.diamondcoming.shopperslist",
                "store_id": 2662743,
                "store_name": "split-store",
                "vername": "1.42-play",
                "vercode": 202,
                "md5sum": "3e58c916a0bd91dfc1561642f6833b1d",
                "apk_tags": [],
                "size": 4827712,
                "downloads": 7,
                "pdownloads": 7,
                "added": "2020-05-29 00:17:58",
                "modified": "2020-05-29 00:18:01",
                "updated": "2021-03-27 04:52:14",
                "rating": 0,
                "icon": "https://pool.img.aptoide.com/split-store/b33b51c8b2585a7d77703b8d7a04ceb7_icon.png",
                "graphic": "https://pool.img.aptoide.com/split-store/6f842a64e00393779c42ae031fb32a35.png",
                "uptype": "webservice"
              },
              {
                "id": 64783103,
                "name": "Codetabellen voor Geocaching",
                "package": "nl.holomarcus.geocachingcodetabellen",
                "store_id": 2899481,
                "store_name": "appupdater",
                "vername": "1.3",
                "vercode": 4,
                "md5sum": "12c36d6bb061315cc9827a1dcd7c13c9",
                "apk_tags": [],
                "size": 7351428,
                "downloads": 7,
                "pdownloads": 7,
                "added": "2018-06-12 14:34:49",
                "modified": "2023-04-15 12:27:08",
                "updated": "2023-04-15 12:27:08",
                "rating": 0,
                "icon": "https://pool.img.aptoide.com/appupdater/e9188d84e08661c19591a6afae1dad64_icon.png",
                "graphic": "https://pool.img.aptoide.com/appupdater/0d996ea6f6057af0478accf9c620e609.png",
                "uptype": "webservice"
              },
              {
                "id": 51863103,
                "name": "Hazrat Ayesha 100 Qisay",
                "package": "com.appsvolt.qisahazrtaesha",
                "store_id": 2662743,
                "store_name": "split-store",
                "vername": "1.5",
                "vercode": 5,
                "md5sum": "bfd11e9ddf91c6e54a4a8e876e105dd7",
                "apk_tags": [],
                "size": 14837353,
                "downloads": 10,
                "pdownloads": 10,
                "added": "2018-06-08 14:42:31",
                "modified": "2020-06-02 15:49:15",
                "updated": "2022-11-27 04:21:45",
                "rating": 0,
                "icon": "https://pool.img.aptoide.com/split-store/6da5f867408a009aca2f40bb83413054_icon.png",
                "graphic": "https://pool.img.aptoide.com/split-store/892a7dd33eddd3334be4089e281ea8e4.png",
                "uptype": "webservice"
              },
              {
                "id": 64782930,
                "name": "Google Drive",
                "package": "com.google.android.apps.docs",
                "store_id": 2892272,
                "store_name": "bjwawesome",
                "vername": "2.23.151.0.all.alldpi",
                "vercode": 213107556,
                "md5sum": "853627c7dad53cde7b0d50c5dec19bdd",
                "apk_tags": [
                  "input.pointer"
                ],
                "size": 102541113,
                "downloads": 31132255,
                "pdownloads": 31132255,
                "added": "2011-05-11 15:45:43",
                "modified": "2023-04-15 11:45:59",
                "updated": "2023-04-15 12:23:54",
                "rating": 5,
                "icon": "https://pool.img.aptoide.com/bjwawesome/6e37b754070cddafc13bff71dd6667fe_icon.png",
                "graphic": "https://pool.img.aptoide.com/bjwawesome/2112cd4b56cc59157a672662d3106dd4_fgraphic.jpg",
                "uptype": "aptuploader"
              },
              {
                "id": 64748639,
                "name": "Adobe Acrobat Reader: Edit PDF",
                "package": "com.adobe.reader",
                "store_id": 3428694,
                "store_name": "faksa",
                "vername": "23.3.0.26648",
                "vercode": 1928926648,
                "md5sum": "a923bd2edab876facb0e4d2ef2008ccf",
                "apk_tags": [],
                "size": 89155960,
                "downloads": 9202155,
                "pdownloads": 9202155,
                "added": "2011-09-23 01:51:42",
                "modified": "2023-04-07 03:17:16",
                "updated": "2023-04-15 12:23:03",
                "rating": 0,
                "icon": "https://pool.img.aptoide.com/faksa/155fca1e85f5b98c3df0be84435feef9_icon.png",
                "graphic": "https://pool.img.aptoide.com/faksa/d5db29b9ee43b099eb2c2736519e15da_fgraphic.png",
                "uptype": "aptuploader"
              },
              {
                "id": 64672128,
                "name": "File Manager",
                "package": "com.alphainventor.filemanager",
                "store_id": 2162170,
                "store_name": "apkmolds",
                "vername": "3.1.8",
                "vercode": 2103018,
                "md5sum": "4fabdea652801d6a9ec54e262f5950f7",
                "apk_tags": [],
                "size": 7949558,
                "downloads": 1122261,
                "pdownloads": 1122261,
                "added": "2016-01-19 21:04:08",
                "modified": "2023-03-28 16:43:25",
                "updated": "2023-04-15 12:22:55",
                "rating": 0,
                "icon": "https://pool.img.aptoide.com/apkmolds/16b3f816b1d5bc1cba00ecfa33453696_icon.png",
                "graphic": "https://pool.img.aptoide.com/apkmolds/009d7300ab909d69d1dea85b90142d69_fgraphic.png",
                "uptype": "aptuploader"
              },
              {
                "id": 59043289,
                "name": "contiGO",
                "package": "com.grupogimeno.contigo",
                "store_id": 2899481,
                "store_name": "appupdater",
                "vername": "2.1.31",
                "vercode": 194,
                "md5sum": "d0d72ee5114764117fe8c4b228dd05f7",
                "apk_tags": [],
                "size": 11095931,
                "downloads": 53,
                "pdownloads": 53,
                "added": "2020-11-03 23:05:15",
                "modified": "2021-08-19 21:23:03",
                "updated": "2023-01-25 06:50:40",
                "rating": 0,
                "icon": "https://pool.img.aptoide.com/appupdater/6955fe04541a7729232b068abe18d7e2_icon.png",
                "graphic": "https://pool.img.aptoide.com/appupdater/a895d43368b2a239a290030438ab0a3a_fgraphic.png",
                "uptype": "webservice"
              },
              {
                "id": 42318714,
                "name": "Entrar",
                "package": "com.entrardomain.entrar",
                "store_id": 1463246,
                "store_name": "vivo-api",
                "vername": "2.5.8",
                "vercode": 11000258,
                "md5sum": "c0b2e8c1ebc51aee4eec3bf17a1bff9d",
                "apk_tags": [],
                "size": 3386645,
                "downloads": 290,
                "pdownloads": 290,
                "added": "2018-03-28 18:05:54",
                "modified": "2018-12-05 20:26:53",
                "updated": "2023-03-25 04:47:14",
                "rating": 0,
                "icon": "https://pool.img.aptoide.com/vivo-api/64aa56de264bf194ea05432eb50f375b_icon.png",
                "graphic": null,
                "uptype": "webservice"
              },
              {
                "id": 63597037,
                "name": "TIDAL Music",
                "package": "com.aspiro.tidal",
                "store_id": 3434725,
                "store_name": "katdroidplayground",
                "vername": "2.72.0",
                "vercode": 1089,
                "md5sum": "a7e0a68455222d5930eff25058e949bd",
                "apk_tags": [],
                "size": 78227144,
                "downloads": 458852,
                "pdownloads": 458852,
                "added": "2014-10-29 01:16:56",
                "modified": "2022-11-17 04:26:52",
                "updated": "2023-04-15 12:07:29",
                "rating": 0,
                "icon": "https://pool.img.aptoide.com/katdroidplayground/76adfcb8ebaaaeb43d4a9abdf2440300_icon.jpg",
                "graphic": "https://pool.img.aptoide.com/katdroidplayground/be137e0b5f538ced25cf0a3c9545eb55_fgraphic.jpg",
                "uptype": "aptuploader"
              },
              {
                "id": 64783016,
                "name": "Catch the Items",
                "package": "com.sinkalation.catchtheitems",
                "store_id": 1966380,
                "store_name": "catappult",
                "vername": "1.4",
                "vercode": 4,
                "md5sum": "daa2fae08c7435074e8ff23191a60230",
                "apk_tags": [],
                "size": 5695485,
                "downloads": 97,
                "pdownloads": 97,
                "added": "2016-01-04 23:02:50",
                "modified": "2023-04-15 12:10:28",
                "updated": "2023-04-15 12:07:28",
                "rating": 0,
                "icon": "https://pool.img.aptoide.com/catappult/405bdebf75a34226ff5fe8bac8f35d30_icon.png",
                "graphic": "https://pool.img.aptoide.com/catappult/d472ce70cb2a53e6e0763d5bb6d0ed61_feature_graphic.png",
                "uptype": "webservice"
              },
              {
                "id": 52733644,
                "name": "EZU",
                "package": "com.pranavaeet.ezu",
                "store_id": 2662743,
                "store_name": "split-store",
                "vername": "2",
                "vercode": 2,
                "md5sum": "bb448efd44ff2e95abc4529a8eb67278",
                "apk_tags": [],
                "size": 3578542,
                "downloads": 13,
                "pdownloads": 13,
                "added": "2020-08-03 07:11:58",
                "modified": "2020-08-03 07:12:01",
                "updated": "2023-04-15 12:06:22",
                "rating": 0,
                "icon": "https://pool.img.aptoide.com/split-store/31b606245e480308a9b6b82365b4645b_icon.png",
                "graphic": "https://pool.img.aptoide.com/split-store/8179fb90a8d4190e79522c3e55d3fb8c.png",
                "uptype": "webservice"
              },
              {
                "id": 64782999,
                "name": "Biocompatibility",
                "package": "it.syncroweb.android.bio",
                "store_id": 2899481,
                "store_name": "appupdater",
                "vername": "14",
                "vercode": 14,
                "md5sum": "46d37856478451c29b67269d7ed14f4c",
                "apk_tags": [],
                "size": 26015443,
                "downloads": 92,
                "pdownloads": 92,
                "added": "2015-02-14 02:25:49",
                "modified": "2023-04-15 12:06:01",
                "updated": "2023-04-15 12:06:01",
                "rating": 0,
                "icon": "https://pool.img.aptoide.com/appupdater/05572b970dc392525f7c9253990ad4b5_icon.png",
                "graphic": "https://pool.img.aptoide.com/appupdater/03b7801251cdc9835f072eaaa05d005a_fgraphic.png",
                "uptype": "webservice"
              },
              {
                "id": 52902940,
                "name": "راهنمای ترافیک",
                "package": "com.afsaneh.rahnamaayetraffic",
                "store_id": 2662743,
                "store_name": "split-store",
                "vername": "1.0",
                "vercode": 3,
                "md5sum": "bf50435fe8fc2b1144ad80e27a5f5aa3",
                "apk_tags": [],
                "size": 17386745,
                "downloads": 6,
                "pdownloads": 6,
                "added": "2020-08-12 15:25:23",
                "modified": "2020-08-12 15:25:26",
                "updated": "2023-04-15 12:05:49",
                "rating": 0,
                "icon": "https://pool.img.aptoide.com/split-store/f55ee068bb753b584006f58ccd1b6f24_icon.png",
                "graphic": "https://pool.img.aptoide.com/split-store/b1697921658b27986e9c3d055dbec76b.png",
                "uptype": "webservice"
              },
              {
                "id": 47067638,
                "name": "Yr",
                "package": "no.nrk.yr",
                "store_id": 1212166,
                "store_name": "apps-me",
                "vername": "5.6.11",
                "vercode": 1100006884,
                "md5sum": "f94b79da7ebe2e8a9fd2a4860ae26594",
                "apk_tags": [],
                "size": 7420962,
                "downloads": 25130,
                "pdownloads": 25130,
                "added": "2012-05-28 00:22:30",
                "modified": "2019-08-13 14:54:46",
                "updated": "2023-04-15 12:05:02",
                "rating": 5,
                "icon": "https://pool.img.aptoide.com/apps-me/1c6eaa2085e09c00a4dcb11ad17e81cb_icon.png",
                "graphic": null,
                "uptype": "aptbackup"
              },
              {
                "id": 64451039,
                "name": "Pinterest",
                "package": "com.pinterest",
                "store_id": 711454,
                "store_name": "appstv",
                "vername": "11.6.0",
                "vercode": 11068030,
                "md5sum": "c011dac8571922fd390c64b248836e8e",
                "apk_tags": [
                  "input.pointer",
                  "leanback.input.pointer"
                ],
                "size": 93661346,
                "downloads": 7674841,
                "pdownloads": 7674841,
                "added": "2012-08-15 10:39:15",
                "modified": "2023-02-27 06:02:13",
                "updated": "2023-04-15 12:02:34",
                "rating": 4.82,
                "icon": "https://pool.img.aptoide.com/appstv/40e5da7734a32f98093e582a05827804_icon.png",
                "graphic": "https://pool.img.aptoide.com/appstv/6521733f1791cb4aa68c3c067e70d72b_fgraphic.jpg",
                "uptype": "aptoidetv"
              },
              {
                "id": 64782969,
                "name": "Firefox Nightly for Developers",
                "package": "org.mozilla.fenix",
                "store_id": 3036168,
                "store_name": "slavuit",
                "vername": "114.0a1",
                "vercode": 2015944867,
                "md5sum": "0f47aea623cf104e86808d56e2295472",
                "apk_tags": [],
                "size": 92366658,
                "downloads": 51481,
                "pdownloads": 51481,
                "added": "2019-04-09 10:35:27",
                "modified": "2023-04-15 11:57:32",
                "updated": "2023-04-15 11:57:32",
                "rating": 5,
                "icon": "https://pool.img.aptoide.com/slavuit/e276d93cd8ef3ea0856796a7a2d21fe0_icon.png",
                "graphic": "https://pool.img.aptoide.com/slavuit/f05ee0f5ccbc71b3a2c74f2bee9b8d23_fgraphic.png",
                "uptype": "aptuploader"
              },
              {
                "id": 64777473,
                "name": "Facebook",
                "package": "com.facebook.katana",
                "store_id": 65518,
                "store_name": "mark8",
                "vername": "412.0.0.0.5",
                "vercode": 441400473,
                "md5sum": "a737de7310bc2ce8c94b2c26bc4dc6dc",
                "apk_tags": [
                  "input.pointer",
                  "leanback.input.pointer",
                  "alpha"
                ],
                "size": 74262014,
                "downloads": 177851597,
                "pdownloads": 177851597,
                "added": "2011-08-03 20:53:18",
                "modified": "2023-04-14 14:07:36",
                "updated": "2023-04-15 11:56:51",
                "rating": 3.48,
                "icon": "https://pool.img.aptoide.com/mark8/642437ceacb6fd6e8ecd2330deda7c1d_icon.png",
                "graphic": "https://pool.img.aptoide.com/mark8/1b9943ad6de248c23a430fa07b0ec5bd_fgraphic.png",
                "uptype": "aptuploader"
              },
              {
                "id": 63589210,
                "name": "Brave Browser (Nightly)",
                "package": "com.brave.browser_nightly",
                "store_id": 2675007,
                "store_name": "storeplay123",
                "vername": "1.47.75",
                "vercode": 414707524,
                "md5sum": "41ca35271ce9f3d0ce982d06a606b74a",
                "apk_tags": [],
                "size": 269192547,
                "downloads": 2223,
                "pdownloads": 2223,
                "added": "2022-03-22 15:14:18",
                "modified": "2022-11-15 20:06:10",
                "updated": "2023-04-15 11:55:58",
                "rating": 0,
                "icon": "https://pool.img.aptoide.com/storeplay123/53bbaef95ee373a19a7d3e9f3edd6103_icon.png",
                "graphic": "https://pool.img.aptoide.com/storeplay123/6c38169b619862d41a9afa518f516db9_fgraphic.png",
                "uptype": "aptuploader"
              },
              {
                "id": 64575885,
                "name": "Discord: Talk, Chat & Hang Out",
                "package": "com.discord",
                "store_id": 1463817,
                "store_name": "india-market",
                "vername": "169.14 - Stable",
                "vercode": 169014,
                "md5sum": "382dfaf271d9fda87ed97851bcefc617",
                "apk_tags": [],
                "size": 204888246,
                "downloads": 6758551,
                "pdownloads": 6758551,
                "added": "2015-08-31 05:07:18",
                "modified": "2023-03-19 01:11:36",
                "updated": "2023-04-15 11:55:48",
                "rating": 4.67,
                "icon": "https://pool.img.aptoide.com/india-market/08db5492269601fc55ad99d881fea933_icon.png",
                "graphic": "https://pool.img.aptoide.com/india-market/90b98ba019ace20a237d41d05384ed40_fgraphic.png",
                "uptype": "aptoidetv"
              },
              {
                "id": 54843726,
                "name": "Zankyou for Professionals",
                "package": "com.zankyou.zankyouProvider",
                "store_id": 2662743,
                "store_name": "split-store",
                "vername": "7.5.2-coupledev-professionalstagg",
                "vercode": 237,
                "md5sum": "02c61f893dc1f2579e1091d330dcdc42",
                "apk_tags": [],
                "size": 29519663,
                "downloads": 23,
                "pdownloads": 23,
                "added": "2020-10-05 02:35:50",
                "modified": "2020-12-02 13:30:42",
                "updated": "2023-04-15 11:54:05",
                "rating": 0,
                "icon": "https://pool.img.aptoide.com/split-store/cf5db618a27442ca278b258b711eccf9_icon.png",
                "graphic": "https://pool.img.aptoide.com/split-store/1c6ae8e5eb1680eac01aad44e34521e3.png",
                "uptype": "webservice"
              },
              {
                "id": 64198900,
                "name": "Chrome Canary (Unstable)",
                "package": "com.chrome.canary",
                "store_id": 1543741,
                "store_name": "mesigior",
                "vername": "111.0.5555.0",
                "vercode": 555500020,
                "md5sum": "5e547b50fe5e48e35bfa1eb701f39754",
                "apk_tags": [],
                "size": 129558108,
                "downloads": 34560,
                "pdownloads": 34560,
                "added": "2016-10-18 17:26:32",
                "modified": "2023-01-23 20:57:33",
                "updated": "2023-04-15 11:53:09",
                "rating": 0,
                "icon": "https://pool.img.aptoide.com/mesigior/cea3b2901a0fa9c61e766fd724cc5d5d_icon.png",
                "graphic": "https://pool.img.aptoide.com/mesigior/6061351271bc49a24471b3a791a14343_fgraphic.png",
                "uptype": "aptuploader"
              },
              {
                "id": 50523245,
                "name": "Woman Blazer Photo Montage",
                "package": "com.DaglocApps.WomanBlazer.PhotoMontage",
                "store_id": 2662743,
                "store_name": "split-store",
                "vername": "1.0.6",
                "vercode": 7,
                "md5sum": "4498d0600e09b9de13a5ca132b8de927",
                "apk_tags": [],
                "size": 16077661,
                "downloads": 298,
                "pdownloads": 298,
                "added": "2017-08-03 18:43:19",
                "modified": "2020-03-02 10:52:29",
                "updated": "2023-04-15 11:47:57",
                "rating": 0,
                "icon": "https://pool.img.aptoide.com/split-store/0557a0462fd0c2a73a972c16a5982c4d_icon.png",
                "graphic": null,
                "uptype": "webservice"
              },
              {
                "id": 50779355,
                "name": "Learn Hungarian - FunEasyLearn",
                "package": "com.funeasylearn.hungarian",
                "store_id": 2662743,
                "store_name": "split-store",
                "vername": "6.0",
                "vercode": 1603,
                "md5sum": "2b2b6c4817a83c0a9611f9aab915cac7",
                "apk_tags": [],
                "size": 80402330,
                "downloads": 487,
                "pdownloads": 487,
                "added": "2016-02-18 21:15:38",
                "modified": "2020-03-15 12:20:10",
                "updated": "2023-03-25 04:46:04",
                "rating": 0,
                "icon": "https://pool.img.aptoide.com/split-store/e19acee7e9630a45862c6a85842007b7_icon.png",
                "graphic": "https://pool.img.aptoide.com/split-store/85a21112c6694d824a1edf54659ee71c.png",
                "uptype": "webservice"
              }
            ]
          }
        }
      }
    }
  }
}
